O	O	0.910492
O	B-V	0.0303991
O	B-A0	0.027659
O	B-A1	0.013608
O	B-R-A0	0.00170234
O	B-AM-LOC	0.000410817
O	B-AM-MOD	0.000836402
O	B-AM-EXT	9.26352e-05
O	B-AM-ADV	0.00382221
O	B-AM-TMP	0.0020326
O	B-AM-DIS	0.000818949
O	B-AM-MNR	0.00112639
O	B-C-A1	0.00114519
O	B-AM-NEG	0.00178826
O	B-R-A1	0.000994822
O	B-R-A2	0.000132911
O	B-R-AM-TMP	0.00034906
O	B-A2	0.00150499
O	B-R-AM-MNR	7.38397e-05
O	B-AM-CAU	0.000285961
O	B-AM-PNC	0.000200038
O	B-A4	7.92098e-05
O	B-C-A4	4.02762e-06
O	B-R-AM-LOC	8.59225e-05
O	B-A3	0.000170503
O	B-C-A2	2.81933e-05
O	B-C-AM-LOC	2.68508e-06
O	B-R-A3	9.39778e-06
O	B-C-A0	6.30994e-05
O	B-R-AM-CAU	1.61105e-05
O	B-R-A4	4.02762e-06
O	B-AM-DIR	2.81933e-05
O	B-C-AM-MNR	4.02762e-06
O	B-AM-PRD	2.68508e-06
O	B-AM-REC	2.68508e-06
O	B-C-AM-TMP	1.34254e-06
O	B-AA	9.39778e-06
O	B-C-V	1.34254e-06
O	B-R-AA	1.34254e-06
O	B-C-AM-DIS	1.34254e-06
O	B-C-A3	4.02762e-06
O	B-C-AM-CAU	2.68508e-06
O	B-R-AM-PNC	2.68508e-06
B-V	B-A1	0.607884
B-V	B-A0	0.0335315
B-V	B-AM-LOC	0.0161346
B-V	O	0.0873868
B-V	B-AM-TMP	0.0301656
B-V	B-A2	0.114095
B-V	B-AM-PNC	0.00680509
B-V	B-C-A1	0.0218421
B-V	B-AM-MNR	0.0184945
B-V	B-AM-ADV	0.00510381
B-V	I-V	0.0263606
B-V	B-AM-MOD	1.82932e-05
B-V	B-A3	0.0124394
B-V	B-AM-DIR	0.00814049
B-V	B-A4	0.00662215
B-V	B-AM-EXT	0.00120735
B-V	B-C-A2	9.14662e-05
B-V	B-AM-DIS	0.000493917
B-V	B-AM-PRD	0.000310985
B-V	B-A5	0.000402451
B-V	B-C-AM-LOC	1.82932e-05
B-V	B-AM-CAU	0.00204884
B-V	B-AM-NEG	0.000146346
B-V	B-C-A0	0.000109759
B-V	B-AM-REC	7.3173e-05
B-V	B-C-AM-MNR	5.48797e-05
B-V	B-AM	1.82932e-05
B-A1	O	0.0692213
B-A1	I-A1	0.862299
B-A1	B-A2	0.0182911
B-A1	B-AM-MOD	0.00534874
B-A1	B-R-A1	0.00165928
B-A1	B-AM-MNR	0.00392371
B-A1	B-A3	0.00160072
B-A1	B-V	0.0207313
B-A1	B-AM-ADV	0.00177641
B-A1	B-AM-PNC	0.00201066
B-A1	B-AM-LOC	0.00286958
B-A1	B-AM-TMP	0.00517305
B-A1	B-C-V	0.00081988
B-A1	B-AM-CAU	0.000468503
B-A1	B-A0	0.00212778
B-A1	B-AM-DIR	0.000468503
B-A1	B-AM-PRD	7.80838e-05
B-A1	B-A1	0.000117126
B-A1	B-AM-DIS	0.000351377
B-A1	B-A4	0.000292814
B-A1	B-C-A0	0.000156168
B-A1	B-AM-NEG	5.85629e-05
B-A1	B-AM-EXT	0.000136647
B-A1	B-AM	1.9521e-05
B-A0	I-A0	0.620899
B-A0	B-V	0.163968
B-A0	O	0.147566
B-A0	B-R-A0	0.00814877
B-A0	B-AM-MOD	0.0390723
B-A0	B-AM-ADV	0.0029252
B-A0	B-AM-NEG	0.00036565
B-A0	B-AM-DIS	0.00692123
B-A0	B-AM-TMP	0.00773088
B-A0	B-AM-MNR	0.00154095
B-A0	B-A1	0.000470121
B-A0	B-AM-LOC	0.000261178
B-A0	B-AM-PRD	2.61178e-05
B-A0	B-R-AM-MNR	2.61178e-05
B-A0	B-A2	2.61178e-05
B-A0	B-AM-EXT	2.61178e-05
B-A0	B-C-A1	2.61178e-05
I-A0	B-V	0.109162
I-A0	I-A0	0.734713
I-A0	O	0.114396
I-A0	B-AM-MOD	0.0172543
I-A0	B-AM-DIS	0.00406245
I-A0	B-AM-LOC	0.000245533
I-A0	B-R-A0	0.0095423
I-A0	B-AM-TMP	0.00590395
I-A0	B-A2	0.000546869
I-A0	B-AM-MNR	0.001529
I-A0	B-AM-ADV	0.00171873
I-A0	B-AM-NEG	0.000100445
I-A0	B-AM-PNC	0.000323657
I-A0	B-AM-EXT	1.11606e-05
I-A0	B-A1	0.000100445
I-A0	B-A3	6.69635e-05
I-A0	B-AM-CAU	0.000122766
I-A0	B-C-A1	0.000145088
I-A0	B-R-AM-MNR	1.11606e-05
I-A0	B-AM-DIR	1.11606e-05
I-A0	B-C-A3	1.11606e-05
I-A0	B-C-AM-ADV	1.11606e-05
I-A0	B-C-AM-EXT	1.11606e-05
I-A1	B-AM-LOC	0.00139958
I-A1	I-A1	0.878914
I-A1	O	0.0888459
I-A1	B-V	0.00976139
I-A1	B-A2	0.00565595
I-A1	B-AM-TMP	0.00435791
I-A1	B-A0	0.00119925
I-A1	B-AM-MNR	0.00165754
I-A1	B-AM-MOD	0.00242868
I-A1	B-AM-PNC	0.00146544
I-A1	B-AM-ADV	0.0011279
I-A1	B-C-V	6.86069e-05
I-A1	B-AM-DIR	0.000178378
I-A1	B-R-A1	0.000944031
I-A1	B-AM-CAU	0.000535134
I-A1	B-A3	0.000826027
I-A1	B-AM-DIS	0.000192099
I-A1	B-C-A0	1.92099e-05
I-A1	B-A4	0.00024424
I-A1	B-AM-EXT	4.66527e-05
I-A1	B-C-AM-ADV	5.48855e-06
I-A1	B-A1	5.21412e-05
I-A1	B-C-A2	8.23282e-06
I-A1	B-AM-NEG	2.74427e-05
I-A1	B-AM-PRD	2.19542e-05
I-A1	B-AM	2.74427e-06
I-A1	B-C-AM-MNR	8.23282e-06
I-A1	B-A5	2.74427e-06
I-A1	B-C-AM-EXT	2.74427e-06
B-AM-LOC	I-AM-LOC	0.946771
B-AM-LOC	O	0.0357027
B-AM-LOC	B-A1	0.00259656
B-AM-LOC	B-V	0.00292113
B-AM-LOC	B-AM-TMP	0.00227199
B-AM-LOC	B-C-A1	0.00064914
B-AM-LOC	B-AM-CAU	0.00097371
B-AM-LOC	B-AM-PNC	0.00162285
B-AM-LOC	B-A0	0.00227199
B-AM-LOC	B-R-AM-LOC	0.00097371
B-AM-LOC	B-AM-ADV	0.00097371
B-AM-LOC	B-AM-MNR	0.00097371
B-AM-LOC	B-AM-LOC	0.00064914
B-AM-LOC	B-A2	0.00064914
I-AM-LOC	I-AM-LOC	0.801444
I-AM-LOC	O	0.157142
I-AM-LOC	B-A1	0.00694776
I-AM-LOC	B-C-A1	0.00108984
I-AM-LOC	B-AM-TMP	0.0140999
I-AM-LOC	B-AM-ADV	0.00211157
I-AM-LOC	B-R-AM-LOC	0.00211157
I-AM-LOC	B-AM-LOC	0.00129419
I-AM-LOC	B-C-A2	0.000204346
I-AM-LOC	B-A4	0.000272461
I-AM-LOC	B-A2	0.00170288
I-AM-LOC	B-AM-PNC	0.00299707
I-AM-LOC	B-A0	0.00381445
I-AM-LOC	B-AM-MNR	0.00129419
I-AM-LOC	B-AM-MOD	6.81153e-05
I-AM-LOC	B-A3	0.000408692
I-AM-LOC	B-AM-CAU	0.00143042
I-AM-LOC	B-V	0.000953614
I-AM-LOC	B-AM-DIR	6.81153e-05
I-AM-LOC	B-C-AM-MNR	6.81153e-05
I-AM-LOC	B-AM-EXT	0.000136231
I-AM-LOC	B-AM-PRD	6.81153e-05
I-AM-LOC	B-AM-TM	6.81153e-05
I-AM-LOC	B-AM-DIS	6.81153e-05
I-AM-LOC	B-C-A0	0.000136231
B-AM-MOD	B-V	0.599964
B-AM-MOD	B-AM-MNR	0.0101689
B-AM-MOD	O	0.234792
B-AM-MOD	B-A0	0.00780824
B-AM-MOD	B-AM-NEG	0.0913383
B-AM-MOD	B-AM-TMP	0.0183403
B-AM-MOD	B-AM-DIS	0.0138006
B-AM-MOD	B-AM-ADV	0.0179771
B-AM-MOD	B-AM-MOD	0.00181587
B-AM-MOD	B-A2	0.00108952
B-AM-MOD	B-A1	0.00199746
B-AM-MOD	I-AM-MOD	0.000363174
B-AM-MOD	B-AM-LOC	0.000181587
B-AM-MOD	B-AM-EXT	0.000181587
B-AM-MOD	B-AM-PNC	0.000181587
B-AM-TMP	I-AM-TMP	0.716496
B-AM-TMP	B-AM-ADV	0.00319818
B-AM-TMP	B-V	0.13484
B-AM-TMP	O	0.0948107
B-AM-TMP	B-A0	0.0108326
B-AM-TMP	B-AM-MNR	0.00247601
B-AM-TMP	B-A1	0.0115547
B-AM-TMP	B-AM-TMP	0.00608687
B-AM-TMP	B-AM-LOC	0.00309502
B-AM-TMP	B-R-AM-TMP	0.00103167
B-AM-TMP	B-AM-MOD	0.00422986
B-AM-TMP	B-AM-PNC	0.00278552
B-AM-TMP	B-C-A1	0.00144434
B-AM-TMP	B-A2	0.00371402
B-AM-TMP	B-AM-CAU	0.00113484
B-AM-TMP	B-AM-EXT	0.000722171
B-AM-TMP	B-C-A2	0.000309502
B-AM-TMP	B-AM-DIS	0.000309502
B-AM-TMP	B-A4	0.000619003
B-AM-TMP	B-AM-DIR	0.000103167
B-AM-TMP	B-C-AM-EXT	0.000103167
B-AM-TMP	B-A3	0.000103167
I-AM-TMP	I-AM-TMP	0.795075
I-AM-TMP	O	0.165564
I-AM-TMP	B-V	0.00504931
I-AM-TMP	B-AM-MOD	0.000206697
I-AM-TMP	B-AM-TMP	0.00581704
I-AM-TMP	B-A2	0.00253942
I-AM-TMP	B-A3	0.00129924
I-AM-TMP	B-AM-PRD	5.90563e-05
I-AM-TMP	B-A1	0.00617138
I-AM-TMP	B-AM-LOC	0.00147641
I-AM-TMP	B-A0	0.00552176
I-AM-TMP	B-AM-PNC	0.00351385
I-AM-TMP	B-A4	0.000590563
I-AM-TMP	B-AM-ADV	0.00200791
I-AM-TMP	B-AM-CAU	0.00121065
I-AM-TMP	B-C-A1	0.00126971
I-AM-TMP	B-AM-MNR	0.0011516
I-AM-TMP	B-R-AM-TMP	0.00109254
I-AM-TMP	B-C-A2	8.85844e-05
I-AM-TMP	B-AM-DIS	0.000118113
I-AM-TMP	B-AM-EXT	2.95281e-05
I-AM-TMP	B-C-A3	2.95281e-05
I-AM-TMP	B-AM-DIR	2.95281e-05
I-AM-TMP	B-C-AM-MNR	5.90563e-05
I-AM-TMP	B-C-AM-DIR	2.95281e-05
B-R-A0	O	0.285132
B-R-A0	B-V	0.52668
B-R-A0	B-AM-MOD	0.0912424
B-R-A0	B-AM-TMP	0.0399185
B-R-A0	B-AM-MNR	0.00814664
B-R-A0	I-R-A0	0.0276986
B-R-A0	B-AM-DIS	0.00814664
B-R-A0	B-AM-ADV	0.01222
B-R-A0	B-A2	0.000407332
B-R-A0	B-AM-LOC	0.000407332
B-A2	I-A2	0.863342
B-A2	B-A1	0.0419881
B-A2	O	0.0457574
B-A2	B-AM-MNR	0.00245442
B-A2	B-AM-TMP	0.0112202
B-A2	B-AM-LOC	0.00289271
B-A2	B-V	0.00587307
B-A2	B-AM-ADV	0.00280505
B-A2	B-A0	0.00464586
B-A2	B-AM-CAU	0.00105189
B-A2	B-AM-PNC	0.000613604
B-A2	B-A4	0.0131487
B-A2	B-A3	0.000701262
B-A2	B-R-A2	0.000613604
B-A2	B-AM-MOD	0.00149018
B-A2	B-C-A1	0.000350631
B-A2	B-AM-DIR	0.000525947
B-A2	B-AM-DIS	0.000262973
B-A2	B-AM-EXT	8.76578e-05
B-A2	B-AM-PRD	8.76578e-05
B-A2	B-C-V	8.76578e-05
I-A2	I-A2	0.845578
I-A2	O	0.113694
I-A2	B-A1	0.00888331
I-A2	B-AM-MNR	0.00178922
I-A2	B-C-AM-MNR	3.13898e-05
I-A2	B-AM-PNC	0.00309189
I-A2	B-V	0.00456721
I-A2	B-AM-TMP	0.00976222
I-A2	B-AM-ADV	0.00219728
I-A2	B-AM-LOC	0.0012399
I-A2	B-AM-MOD	0.000973083
I-A2	B-A4	0.00362552
I-A2	B-R-A2	0.000612101
I-A2	B-AM-DIS	0.000470847
I-A2	B-A0	0.000659185
I-A2	B-A3	0.00105156
I-A2	B-AM-DIR	6.27796e-05
I-A2	B-AM-CAU	0.000988778
I-A2	B-C-A1	0.000659185
I-A2	B-C-AM-ADV	4.70847e-05
I-A2	B-AM-REC	1.56949e-05
B-AM-DIS	B-AM-MOD	0.0186683
B-AM-DIS	I-AM-DIS	0.173304
B-AM-DIS	B-A0	0.161481
B-AM-DIS	B-V	0.257934
B-AM-DIS	B-AM-MNR	0.00466708
B-AM-DIS	O	0.258867
B-AM-DIS	B-AM-ADV	0.0261357
B-AM-DIS	B-A1	0.0479154
B-AM-DIS	B-AM-DIS	0.00280025
B-AM-DIS	B-AM-LOC	0.00902302
B-AM-DIS	B-AM-TMP	0.0329807
B-AM-DIS	B-AM-PNC	0.00124456
B-AM-DIS	B-AM-CAU	0.00155569
B-AM-DIS	B-A2	0.00280025
B-AM-DIS	B-R-AM-TMP	0.000311139
B-AM-DIS	B-R-A0	0.000311139
B-AM-EXT	B-V	0.30303
B-AM-EXT	I-AM-EXT	0.555556
B-AM-EXT	B-A1	0.0353535
B-AM-EXT	O	0.0555556
B-AM-EXT	B-AM-TMP	0.010101
B-AM-EXT	B-AM-LOC	0.0151515
B-AM-EXT	B-AM-ADV	0.00505051
B-AM-EXT	B-AM-PNC	0.010101
B-AM-EXT	B-A0	0.00505051
B-AM-EXT	B-AM-MNR	0.00505051
B-AM-ADV	B-V	0.101024
B-AM-ADV	I-AM-ADV	0.820517
B-AM-ADV	B-AM-MOD	0.00798472
B-AM-ADV	O	0.0440896
B-AM-ADV	B-A1	0.00937337
B-AM-ADV	B-A2	0.00538101
B-AM-ADV	B-A0	0.00659608
B-AM-ADV	B-C-A2	0.000173581
B-AM-ADV	B-AM-MNR	0.000347162
B-AM-ADV	B-AM-NEG	0.000520743
B-AM-ADV	B-AM	0.000173581
B-AM-ADV	B-AM-PNC	0.000694324
B-AM-ADV	B-AM-TMP	0.00104149
B-AM-ADV	B-AM-ADV	0.000520743
B-AM-ADV	B-A3	0.000694324
B-AM-ADV	B-AM-DIR	0.000347162
B-AM-ADV	B-AM-CAU	0.000173581
B-AM-ADV	B-AM-LOC	0.000173581
B-AM-ADV	B-C-A1	0.000173581
I-AM-ADV	I-AM-ADV	0.891207
I-AM-ADV	O	0.103864
I-AM-ADV	B-A0	0.00122058
I-AM-ADV	B-V	0.000921192
I-AM-ADV	B-AM-MOD	0.000161209
I-AM-ADV	B-AM-TMP	0.000783013
I-AM-ADV	B-A4	2.30298e-05
I-AM-ADV	B-AM-ADV	0.000207268
I-AM-ADV	B-AM-PNC	0.000138179
I-AM-ADV	B-AM-MNR	0.000138179
I-AM-ADV	B-A1	0.000921192
I-AM-ADV	B-AM-CAU	0.000115149
I-AM-ADV	B-A2	0.000138179
I-AM-ADV	B-A3	2.30298e-05
I-AM-ADV	B-AM-DIS	6.90894e-05
I-AM-ADV	B-R-A0	2.30298e-05
I-AM-ADV	B-R-AM-ADV	2.30298e-05
I-AM-ADV	B-C-A1	2.30298e-05
B-AM-PNC	I-AM-PNC	0.99735
B-AM-PNC	B-AM-MOD	0.00105988
B-AM-PNC	B-A1	0.000529942
B-AM-PNC	O	0.000529942
B-AM-PNC	B-AM-ADV	0.000529942
I-AM-PNC	I-AM-PNC	0.868631
I-AM-PNC	O	0.12703
I-AM-PNC	B-A1	0.000279955
I-AM-PNC	B-AM-MNR	0.00055991
I-AM-PNC	B-AM-PNC	0.000139978
I-AM-PNC	B-AM-TMP	0.00146976
I-AM-PNC	B-AM-ADV	0.000489922
I-AM-PNC	B-AM-LOC	0.000629899
I-AM-PNC	B-A0	0.000489922
I-AM-PNC	B-A2	6.99888e-05
I-AM-PNC	B-AM-CAU	6.99888e-05
I-AM-PNC	B-V	0.000139978
B-AM-MNR	B-V	0.208084
B-AM-MNR	I-AM-MNR	0.613151
B-AM-MNR	O	0.07885
B-AM-MNR	B-AM-DIS	0.000569314
B-AM-MNR	B-A1	0.028181
B-AM-MNR	B-A2	0.0159408
B-AM-MNR	B-AM-TMP	0.0173641
B-AM-MNR	B-AM-LOC	0.00967834
B-AM-MNR	B-A0	0.00313123
B-AM-MNR	B-AM-PNC	0.00455451
B-AM-MNR	B-A3	0.0019926
B-AM-MNR	B-AM-ADV	0.00540848
B-AM-MNR	B-AM-MNR	0.00426985
B-AM-MNR	B-AM-CAU	0.00227726
B-AM-MNR	B-A4	0.000853971
B-AM-MNR	B-AM-MOD	0.000853971
B-AM-MNR	B-AM-DIR	0.00256191
B-AM-MNR	B-AM-EXT	0.000569314
B-AM-MNR	B-C-V	0.000284657
B-AM-MNR	B-C-A1	0.00113863
B-AM-MNR	B-C-A2	0.000284657
I-AM-DIS	O	0.604116
I-AM-DIS	B-AM-MOD	0.00121065
I-AM-DIS	I-AM-DIS	0.325666
I-AM-DIS	B-C-A2	0.00121065
I-AM-DIS	B-V	0.0181598
I-AM-DIS	B-A1	0.0121065
I-AM-DIS	B-A0	0.0145278
I-AM-DIS	B-A2	0.00968523
I-AM-DIS	B-C-A1	0.00121065
I-AM-DIS	B-R-A0	0.00121065
I-AM-DIS	B-AM-MNR	0.00605327
I-AM-DIS	B-AM-ADV	0.00121065
I-AM-DIS	B-AM-PNC	0.00242131
I-AM-DIS	B-AM-TMP	0.00121065
I-AM-MNR	I-AM-MNR	0.841415
I-AM-MNR	O	0.127045
I-AM-MNR	B-A1	0.0064112
I-AM-MNR	B-AM-LOC	0.00265291
I-AM-MNR	B-V	0.00397937
I-AM-MNR	B-C-A1	0.000221076
I-AM-MNR	B-A0	0.00309506
I-AM-MNR	B-R-AM-MNR	0.000515844
I-AM-MNR	B-AM-PNC	0.00221076
I-AM-MNR	B-AM-TMP	0.00560059
I-AM-MNR	B-A3	0.000884304
I-AM-MNR	B-A2	0.00154753
I-AM-MNR	B-AM-CAU	0.00110538
I-AM-MNR	B-AM-EXT	0.000663228
I-AM-MNR	B-AM-MNR	0.000589536
I-AM-MNR	B-AM-ADV	0.00154753
I-AM-MNR	B-A4	0.000294768
I-AM-MNR	B-AM-DIR	7.3692e-05
I-AM-MNR	B-AM-MOD	0.000147384
B-R-A1	B-A0	0.252912
B-R-A1	B-V	0.216306
B-R-A1	O	0.338602
B-R-A1	B-AM-DIS	0.00415973
B-R-A1	B-AM-MOD	0.103161
B-R-A1	I-R-A1	0.062396
B-R-A1	B-AM-ADV	0.00748752
B-R-A1	B-AM-TMP	0.00998336
B-R-A1	B-AM-LOC	0.00166389
B-R-A1	B-A2	0.00166389
B-R-A1	B-AM-NEG	0.000831947
B-R-A1	B-AM-MNR	0.000831947
B-C-A1	I-C-A1	0.951339
B-C-A1	O	0.0303571
B-C-A1	B-AM-MOD	0.00133929
B-C-A1	B-A0	0.00401786
B-C-A1	B-AM-DIS	0.000446429
B-C-A1	B-AM-LOC	0.000446429
B-C-A1	B-AM-TMP	0.00669643
B-C-A1	B-A2	0.000446429
B-C-A1	B-V	0.00446429
B-C-A1	B-AM-CAU	0.000446429
I-C-A1	I-C-A1	0.904128
I-C-A1	O	0.0918082
I-C-A1	B-AM-MNR	0.000225795
I-C-A1	B-AM-TMP	0.00194184
I-C-A1	B-AM-PNC	0.000361272
I-C-A1	B-AM-ADV	0.000767702
I-C-A1	B-AM-CAU	0.000406431
I-C-A1	B-AM-MOD	4.5159e-05
I-C-A1	B-AM-LOC	0.000180636
I-C-A1	B-AM-EXT	9.03179e-05
I-C-A1	B-V	4.5159e-05
I-V	B-A3	0.00624133
I-V	B-A1	0.588072
I-V	B-AM-MNR	0.0367545
I-V	O	0.126214
I-V	B-AM-PNC	0.018724
I-V	B-A4	0.00277393
I-V	B-A2	0.0693481
I-V	B-AM-TMP	0.0492372
I-V	B-C-A1	0.0249653
I-V	B-AM-LOC	0.0284327
I-V	B-A0	0.0242718
I-V	B-AM-DIR	0.00416089
I-V	B-AM-ADV	0.0131761
I-V	B-AM-DIS	0.00138696
I-V	B-AM-EXT	0.00277393
I-V	B-AM-CAU	0.00208044
I-V	I-V	0.000693481
I-V	B-AM-PRD	0.000693481
B-A3	I-A3	0.888594
B-A3	O	0.0497347
B-A3	B-A0	0.00198939
B-A3	B-AM-MNR	0.00198939
B-A3	B-A2	0.0106101
B-A3	B-AM-LOC	0.00198939
B-A3	B-A1	0.0192308
B-A3	B-AM-CAU	0.00132626
B-A3	B-R-A3	0.00066313
B-A3	B-AM-PNC	0.00464191
B-A3	B-AM-ADV	0.00530504
B-A3	B-V	0.00198939
B-A3	B-AM-TMP	0.00729443
B-A3	B-AM-MOD	0.00331565
B-A3	B-C-A1	0.00132626
I-A3	I-A3	0.822092
I-A3	O	0.127058
I-A3	B-A2	0.00517791
I-A3	B-A1	0.00995751
I-A3	B-AM-TMP	0.0130112
I-A3	B-C-A1	0.000796601
I-A3	B-A4	0.00491237
I-A3	B-AM-MNR	0.0019915
I-A3	B-AM-ADV	0.00358471
I-A3	B-AM-DIR	0.000132767
I-A3	B-AM-LOC	0.0015932
I-A3	B-AM-CAU	0.00132767
I-A3	B-V	0.0015932
I-A3	B-AM-PNC	0.00531067
I-A3	B-R-A3	0.000398301
I-A3	B-AM-MOD	0.000398301
I-A3	B-A0	0.000398301
I-A3	B-AM-DIS	0.000132767
I-A3	B-C-AM-MNR	0.000132767
B-AM-NEG	B-V	0.813326
B-AM-NEG	B-AM-ADV	0.0222105
B-AM-NEG	O	0.107351
B-AM-NEG	B-AM-MNR	0.00951877
B-AM-NEG	B-AM-TMP	0.0280275
B-AM-NEG	B-A0	0.00475939
B-AM-NEG	B-A1	0.00475939
B-AM-NEG	I-AM-NEG	0.00211528
B-AM-NEG	B-A2	0.00211528
B-AM-NEG	B-AM-DIS	0.00370175
B-AM-NEG	B-AM-MOD	0.00105764
B-AM-NEG	B-AM-EXT	0.000528821
B-AM-NEG	B-A3	0.000528821
B-C-V	B-AM-MNR	0.1
B-C-V	O	0.442857
B-C-V	B-AM-PNC	0.0571429
B-C-V	B-AM-TMP	0.128571
B-C-V	B-A2	0.2
B-C-V	B-A3	0.0142857
B-C-V	B-A4	0.0142857
B-C-V	B-C-A1	0.0142857
B-C-V	B-A1	0.0285714
B-AM-DIR	I-AM-DIR	0.509709
B-AM-DIR	B-AM-PNC	0.0161812
B-AM-DIR	B-AM-MNR	0.0307443
B-AM-DIR	B-A2	0.0825243
B-AM-DIR	B-A3	0.0113269
B-AM-DIR	O	0.145631
B-AM-DIR	B-AM-LOC	0.0145631
B-AM-DIR	B-AM-ADV	0.0145631
B-AM-DIR	B-A1	0.0873786
B-AM-DIR	B-A4	0.0194175
B-AM-DIR	B-AM-DIR	0.0226537
B-AM-DIR	B-A0	0.00647249
B-AM-DIR	B-AM-CAU	0.00323625
B-AM-DIR	B-V	0.00323625
B-AM-DIR	B-AM-EXT	0.00647249
B-AM-DIR	B-AM-TMP	0.02589
I-AM-DIR	I-AM-DIR	0.804469
I-AM-DIR	O	0.122284
I-AM-DIR	B-AM-DIR	0.00869025
I-AM-DIR	B-A0	0.0018622
I-AM-DIR	B-AM-MNR	0.0124146
I-AM-DIR	B-AM-TMP	0.0248293
I-AM-DIR	B-AM-ADV	0.00310366
I-AM-DIR	B-AM-LOC	0.00434513
I-AM-DIR	B-AM-PNC	0.00931099
I-AM-DIR	B-AM-CAU	0.000620732
I-AM-DIR	B-A1	0.00124146
I-AM-DIR	B-A2	0.00682806
B-R-A2	B-A1	0.115646
B-R-A2	O	0.183673
B-R-A2	B-V	0.44898
B-R-A2	I-R-A2	0.0680272
B-R-A2	B-AM-DIS	0.0272109
B-R-A2	B-AM-MOD	0.102041
B-R-A2	B-A0	0.0340136
B-R-A2	B-AM-TMP	0.0204082
B-AM-PRD	I-AM-PRD	0.7
B-AM-PRD	B-A1	0.05
B-AM-PRD	B-V	0.025
B-AM-PRD	B-AM-PNC	0.025
B-AM-PRD	O	0.15
B-AM-PRD	B-AM-LOC	0.05
I-AM-PRD	I-AM-PRD	0.844444
I-AM-PRD	O	0.138889
I-AM-PRD	B-A2	0.0111111
I-AM-PRD	B-AM-TMP	0.00555556
B-R-AM-TMP	B-A1	0.348028
B-R-AM-TMP	I-R-AM-TMP	0.0185615
B-R-AM-TMP	B-A0	0.524362
B-R-AM-TMP	O	0.0649652
B-R-AM-TMP	B-AM-MNR	0.00232019
B-R-AM-TMP	B-V	0.0278422
B-R-AM-TMP	B-AM-MOD	0.00232019
B-R-AM-TMP	B-A2	0.00464037
B-R-AM-TMP	B-AM-TMP	0.00232019
B-R-AM-TMP	B-AM-ADV	0.00464037
B-C-AM-MNR	I-C-AM-MNR	1
I-C-AM-MNR	I-C-AM-MNR	0.863636
I-C-AM-MNR	O	0.127273
I-C-AM-MNR	B-A2	0.00909091
I-R-AM-TMP	B-V	0.125
I-R-AM-TMP	B-A0	0.75
I-R-AM-TMP	B-A1	0.125
B-R-AM-MNR	O	0.238806
B-R-AM-MNR	B-A0	0.477612
B-R-AM-MNR	I-R-AM-MNR	0.134328
B-R-AM-MNR	B-A1	0.119403
B-R-AM-MNR	B-AM-MOD	0.0149254
B-R-AM-MNR	B-AM-TMP	0.0149254
B-AM-CAU	I-AM-CAU	0.996548
B-AM-CAU	O	0.00115075
B-AM-CAU	B-AM-NEG	0.00115075
B-AM-CAU	B-AM-MOD	0.00115075
I-AM-CAU	I-AM-CAU	0.91649
I-AM-CAU	O	0.081676
I-AM-CAU	B-AM-CAU	9.65437e-05
I-AM-CAU	B-A0	0.000579262
I-AM-CAU	B-A1	0.000675806
I-AM-CAU	B-AM-ADV	9.65437e-05
I-AM-CAU	B-R-AM-CAU	9.65437e-05
I-AM-CAU	B-AM-TMP	0.000289631
B-A4	I-A4	0.965
B-A4	B-AM-TMP	0.005
B-A4	B-AM-PNC	0.003
B-A4	B-AM-CAU	0.001
B-A4	O	0.018
B-A4	B-AM-ADV	0.002
B-A4	B-A0	0.001
B-A4	B-V	0.001
B-A4	B-A1	0.002
B-A4	B-AM-MNR	0.001
B-A4	B-AM-LOC	0.001
I-A4	I-A4	0.75869
I-A4	O	0.144286
I-A4	B-AM-TMP	0.0292573
I-A4	B-AM-PNC	0.0100025
I-A4	B-A3	0.0305076
I-A4	B-AM-LOC	0.0100025
I-A4	B-AM-MNR	0.00375094
I-A4	B-AM-ADV	0.00675169
I-A4	B-A1	0.0020005
I-A4	B-AM-CAU	0.00250063
I-A4	B-AM-REC	0.000250063
I-A4	B-A4	0.000500125
I-A4	B-A0	0.000250063
I-A4	B-R-A4	0.000250063
I-A4	B-A2	0.000250063
I-A4	B-V	0.000250063
I-A4	B-C-A1	0.000250063
I-A4	B-C-A2	0.000250063
I-AM-EXT	I-AM-EXT	0.705882
I-AM-EXT	O	0.197861
I-AM-EXT	B-AM-TMP	0.0240642
I-AM-EXT	B-A1	0.0187166
I-AM-EXT	B-AM-PNC	0.00534759
I-AM-EXT	B-AM-LOC	0.00802139
I-AM-EXT	B-V	0.0187166
I-AM-EXT	B-AM-DIR	0.00534759
I-AM-EXT	B-A2	0.0026738
I-AM-EXT	B-A0	0.00534759
I-AM-EXT	B-AM-ADV	0.0026738
I-AM-EXT	B-C-A1	0.0026738
I-AM-EXT	B-AM-CAU	0.0026738
B-C-A4	I-C-A4	1
I-C-A4	I-C-A4	0.903226
I-C-A4	B-AM-TMP	0.0322581
I-C-A4	O	0.0645161
I-R-A1	I-R-A1	0.581006
I-R-A1	O	0.189944
I-R-A1	B-V	0.0893855
I-R-A1	B-A0	0.0837989
I-R-A1	B-AM-MOD	0.0446927
I-R-A1	B-AM-TMP	0.0111732
B-R-AM-LOC	B-A0	0.40404
B-R-AM-LOC	B-A1	0.232323
B-R-AM-LOC	I-R-AM-LOC	0.323232
B-R-AM-LOC	B-A2	0.020202
B-R-AM-LOC	O	0.020202
I-R-A0	I-R-A0	0.604651
I-R-A0	O	0.133721
I-R-A0	B-V	0.203488
I-R-A0	B-AM-MOD	0.0348837
I-R-A0	B-AM-TMP	0.0174419
I-R-A0	B-A2	0.00581395
B-C-A0	I-C-A0	0.914286
B-C-A0	B-V	0.0571429
B-C-A0	O	0.0285714
I-C-A0	I-C-A0	0.886926
I-C-A0	B-C-A1	0.00176678
I-C-A0	O	0.100707
I-C-A0	B-AM-TMP	0.00353357
I-C-A0	B-R-A0	0.00176678
I-C-A0	B-V	0.00530035
B-C-A2	I-C-A2	0.880952
B-C-A2	B-A1	0.047619
B-C-A2	O	0.047619
B-C-A2	B-V	0.0238095
I-C-A2	I-C-A2	0.862454
I-C-A2	O	0.130112
I-C-A2	B-AM-ADV	0.00371747
I-C-A2	B-R-A2	0.00371747
I-R-A2	B-A1	0.266667
I-R-A2	I-R-A2	0.333333
I-R-A2	B-AM-TMP	0.0666667
I-R-A2	B-V	0.2
I-R-A2	B-A0	0.0666667
I-R-A2	B-AM-MOD	0.0666667
B-A5	B-A3	0.0434783
B-A5	B-A2	0.434783
B-A5	B-A1	0.130435
B-A5	O	0.173913
B-A5	B-AM-MNR	0.0434783
B-A5	B-AM-TMP	0.0434783
B-A5	I-A5	0.0434783
B-A5	B-AM-ADV	0.0869565
I-R-AM-MNR	B-A0	0.6
I-R-AM-MNR	I-R-AM-MNR	0.1
I-R-AM-MNR	O	0.2
I-R-AM-MNR	B-A1	0.1
B-C-AM-LOC	I-C-AM-LOC	1
I-C-AM-LOC	B-A0	0.111111
I-C-AM-LOC	I-C-AM-LOC	0.666667
I-C-AM-LOC	O	0.222222
B-R-A3	B-V	0.166667
B-R-A3	I-R-A3	0.166667
B-R-A3	B-AM-MOD	0.166667
B-R-A3	B-A1	0.166667
B-R-A3	B-A0	0.0833333
B-R-A3	O	0.25
I-R-AM-LOC	B-A0	0.625
I-R-AM-LOC	B-A1	0.34375
I-R-AM-LOC	O	0.03125
B-R-AM-CAU	B-A1	0.235294
B-R-AM-CAU	O	0.294118
B-R-AM-CAU	B-A0	0.352941
B-R-AM-CAU	B-AM-MOD	0.117647
B-R-A4	O	0.25
B-R-A4	B-A1	0.5
B-R-A4	B-A0	0.25
B-C-AM-ADV	I-C-AM-ADV	1
I-C-AM-ADV	I-C-AM-ADV	0.894737
I-C-AM-ADV	O	0.105263
I-R-A3	B-A1	1
I-AM-NEG	B-V	0.75
I-AM-NEG	O	0.25
B-AM-REC	B-V	0.25
B-AM-REC	O	0.5
B-AM-REC	B-A1	0.125
B-AM-REC	I-AM-REC	0.125
B-AM	I-AM	1
I-AM	I-AM	0.777778
I-AM	O	0.166667
I-AM	B-AM-ADV	0.0555556
B-C-AM-TMP	I-C-AM-TMP	1
I-C-AM-TMP	I-C-AM-TMP	0.833333
I-C-AM-TMP	O	0.166667
B-AA	I-AA	0.444444
B-AA	O	0.222222
B-AA	B-V	0.222222
B-AA	B-AM-MOD	0.111111
I-AA	B-AM-MOD	0.25
I-AA	O	0.75
B-R-AA	O	1
B-C-AM-EXT	I-C-AM-EXT	1
I-C-AM-EXT	I-C-AM-EXT	0.892857
I-C-AM-EXT	O	0.107143
B-R-AM-PNC	O	0.5
B-R-AM-PNC	B-AM-MOD	0.25
B-R-AM-PNC	B-A1	0.25
B-C-A3	I-C-A3	1
I-C-A3	I-C-A3	0.878049
I-C-A3	O	0.121951
I-A5	I-A5	0.5
I-A5	O	0.5
B-C-AM-DIS	O	1
I-AM-MOD	B-V	0.2
I-AM-MOD	I-AM-MOD	0.6
I-AM-MOD	O	0.2
B-AM-TM	I-AM-TM	1
I-AM-TM	I-AM-TM	0.944444
I-AM-TM	O	0.0555556
B-C-AM-CAU	I-C-AM-CAU	1
I-C-AM-CAU	I-C-AM-CAU	0.882353
I-C-AM-CAU	O	0.117647
B-R-AM-ADV	I-R-AM-ADV	1
I-R-AM-ADV	B-A0	1
I-AM-REC	B-A3	1
B-C-AM-DIR	I-C-AM-DIR	1
I-C-AM-DIR	O	1
